<?xml version="1.0" encoding="UTF-8" standalone="no"?>
<svg
   width="210mm"
   height="297mm"
   viewBox="0 0 210 297"
   version="1.1"
   id="svg8"
   inkscape:version="1.1 (c4e8f9ed74, 2021-05-24)"
   sodipodi:docname="prestalibe-logo.svg"
   inkscape:export-filename="/home/annadoizy/Documents/Prestalibre/logo.png"
   inkscape:export-xdpi="100"
   inkscape:export-ydpi="100"
   xmlns:inkscape="http://www.inkscape.org/namespaces/inkscape"
   xmlns:sodipodi="http://sodipodi.sourceforge.net/DTD/sodipodi-0.dtd"
   xmlns="http://www.w3.org/2000/svg"
   xmlns:svg="http://www.w3.org/2000/svg"
   xmlns:rdf="http://www.w3.org/1999/02/22-rdf-syntax-ns#"
   xmlns:cc="http://creativecommons.org/ns#"
   xmlns:dc="http://purl.org/dc/elements/1.1/">
  <defs
     id="defs2">
    <rect
       x="-111.11037"
       y="-96.292143"
       width="682.71481"
       height="693.40288"
       id="rect16005" />
    <rect
       x="86.359377"
       y="584.33784"
       width="61.863499"
       height="44.300968"
       id="rect1026" />
  </defs>
  <sodipodi:namedview
     id="base"
     pagecolor="#ffffff"
     bordercolor="#666666"
     borderopacity="1.0"
     inkscape:pageopacity="0.0"
     inkscape:pageshadow="2"
     inkscape:zoom="0.47215437"
     inkscape:cx="1048.3859"
     inkscape:cy="541.13658"
     inkscape:document-units="mm"
     inkscape:current-layer="layer1"
     inkscape:document-rotation="0"
     showgrid="false"
     inkscape:window-width="1920"
     inkscape:window-height="1043"
     inkscape:window-x="0"
     inkscape:window-y="0"
     inkscape:window-maximized="1"
     inkscape:pagecheckerboard="0" />
  <metadata
     id="metadata5">
    <rdf:RDF>
      <cc:Work
         rdf:about="">
        <dc:format>image/svg+xml</dc:format>
        <dc:type
           rdf:resource="http://purl.org/dc/dcmitype/StillImage" />
        <dc:title />
      </cc:Work>
    </rdf:RDF>
  </metadata>
  <g
     inkscape:label="Calque 1"
     inkscape:groupmode="layer"
     id="layer1">
    <rect
       style="fill:#02233d;fill-opacity:1;stroke:none;stroke-width:0.99588;stroke-miterlimit:3"
       id="rect833-3"
       width="150"
       height="150"
       x="-2.8421709e-14"
       y="0"
       inkscape:export-filename="/home/annadoizy/Documents/DoAna - Libranou/website/static/images/logo-libranou.png"
       inkscape:export-xdpi="100"
       inkscape:export-ydpi="100" />
    <text
       xml:space="preserve"
       style="font-style:normal;font-weight:normal;font-size:35.4458px;line-height:1.25;font-family:sans-serif;fill:#ffffff;fill-opacity:1;stroke:none;stroke-width:0.639005"
       x="3.4622974"
       y="39.567196"
       id="text837-6"
       transform="scale(0.89460714,1.1178091)"
       inkscape:export-filename="/home/annadoizy/Documents/DoAna - Libranou/website/static/images/logo-libranou.png"
       inkscape:export-xdpi="100"
       inkscape:export-ydpi="100"><tspan
         sodipodi:role="line"
         id="tspan835-7"
         x="3.4622974"
         y="39.567196"
         style="font-style:normal;font-variant:normal;font-weight:normal;font-stretch:normal;font-size:35.4458px;font-family:'cabin sketch';-inkscape-font-specification:'cabin sketch';fill:#ffffff;fill-opacity:1;stroke-width:0.639005">LIBRANOU</tspan></text>
    <text
       xml:space="preserve"
       style="font-style:normal;font-weight:normal;font-size:10.9554px;line-height:1.25;font-family:sans-serif;fill:#ffffff;fill-opacity:1;stroke:none;stroke-width:0.228237"
       x="81.042725"
       y="93.009514"
       id="text841-5"
       transform="scale(0.94786506,1.0550025)"
       inkscape:export-filename="/home/annadoizy/Documents/DoAna - Libranou/website/static/images/logo-libranou.png"
       inkscape:export-xdpi="100"
       inkscape:export-ydpi="100"><tspan
         sodipodi:role="line"
         id="tspan839-3"
         x="81.042725"
         y="93.009514"
         style="font-style:normal;font-variant:normal;font-weight:normal;font-stretch:normal;font-size:10.9554px;font-family:'turret road';-inkscape-font-specification:'turret road';text-align:center;text-anchor:middle;fill:#ffffff;fill-opacity:1;stroke-width:0.228237">Le réseau des prestataires </tspan><tspan
         sodipodi:role="line"
         x="81.042725"
         y="106.89998"
         style="font-style:normal;font-variant:normal;font-weight:normal;font-stretch:normal;font-size:10.9554px;font-family:'turret road';-inkscape-font-specification:'turret road';text-align:center;text-anchor:middle;fill:#ffffff;fill-opacity:1;stroke-width:0.228237"
         id="tspan843-5">de la Réunion </tspan><tspan
         sodipodi:role="line"
         x="81.042725"
         y="120.79045"
         style="font-style:normal;font-variant:normal;font-weight:normal;font-stretch:normal;font-size:10.9554px;font-family:'turret road';-inkscape-font-specification:'turret road';text-align:center;text-anchor:middle;fill:#ffffff;fill-opacity:1;stroke-width:0.228237"
         id="tspan845-6">portés par le logiciel libre</tspan></text>
    <path
       style="fill:#a40404;fill-opacity:1;stroke:none;stroke-width:0.273497px;stroke-linecap:butt;stroke-linejoin:miter;stroke-opacity:1"
       d="m 42,64.999993 h 73 l -7,6 H 35 Z"
       id="path939-3"
       sodipodi:nodetypes="ccccc"
       inkscape:export-filename="/home/annadoizy/Documents/DoAna - Libranou/website/static/images/logo-libranou.png"
       inkscape:export-xdpi="100"
       inkscape:export-ydpi="100" />
    <rect
       style="fill:#02233d;fill-opacity:1;stroke:none;stroke-width:0.99588;stroke-miterlimit:3"
       id="rect833-3-9"
       width="150"
       height="150"
       x="0"
       y="160"
       inkscape:export-filename="/home/annadoizy/Documents/DoAna - Libranou/website/static/images/favicon.ico"
       inkscape:export-xdpi="100"
       inkscape:export-ydpi="100" />
    <text
       xml:space="preserve"
       style="font-style:normal;font-weight:normal;font-size:35.4609px;line-height:1.25;font-family:sans-serif;fill:#ffffff;fill-opacity:1;stroke:none;stroke-width:0.886522"
       x="83.764885"
       y="206.24455"
       id="text837-6-1"
       transform="scale(0.8942286,1.1182823)"
       inkscape:export-filename="/home/annadoizy/Documents/DoAna - Libranou/website/static/images/favicon.ico"
       inkscape:export-xdpi="100"
       inkscape:export-ydpi="100"><tspan
         sodipodi:role="line"
         x="83.764893"
         y="206.24455"
         style="font-style:normal;font-variant:normal;font-weight:normal;font-stretch:normal;font-family:'cabin sketch';-inkscape-font-specification:'cabin sketch';text-align:center;text-anchor:middle;fill:#ffffff;fill-opacity:1;stroke-width:0.886522"
         id="tspan1022">LIBRANOU</tspan></text>
    <path
       style="fill:#a40404;fill-opacity:1;stroke:none;stroke-width:0.273497px;stroke-linecap:butt;stroke-linejoin:miter;stroke-opacity:1"
       d="m 42,254.17913 h 73 l -7,6 H 35 Z"
       id="path939-3-6"
       sodipodi:nodetypes="ccccc"
       inkscape:export-filename="/home/annadoizy/Documents/DoAna - Libranou/website/static/images/favicon.ico"
       inkscape:export-xdpi="100"
       inkscape:export-ydpi="100" />
    <text
       xml:space="preserve"
       id="text1024"
       style="fill:black;fill-opacity:1;line-height:1.25;stroke:none;font-family:sans-serif;font-style:normal;font-weight:normal;font-size:10.58333333px;white-space:pre;shape-inside:url(#rect1026)" />
    <text
       xml:space="preserve"
       transform="scale(0.26458333)"
       id="text16003"
       style="fill:black;fill-opacity:1;line-height:1.25;stroke:none;font-family:sans-serif;font-style:normal;font-weight:normal;font-size:40px;white-space:pre;shape-inside:url(#rect16005)" />
  </g>
</svg>
